module gitlab.com/gitlab-org/gitaly/tools/gotestsum

go 1.19

require gotest.tools/gotestsum v1.10.0

require (
	github.com/dnephin/pflag v1.0.7 // indirect
	github.com/fatih/color v1.13.0 // indirect
	github.com/fsnotify/fsnotify v1.5.4 // indirect
	github.com/google/go-cmp v0.5.9 // indirect
	github.com/google/shlex v0.0.0-20191202100458-e7afc7fbc510 // indirect
	github.com/mattn/go-colorable v0.1.13 // indirect
	github.com/mattn/go-isatty v0.0.16 // indirect
	golang.org/x/mod v0.6.0-dev.0.20220419223038-86c51ed26bb4 // indirect
	golang.org/x/sync v0.0.0-20220601150217-0de741cfad7f // indirect
	golang.org/x/sys v0.0.0-20220915200043-7b5979e65e41 // indirect
	golang.org/x/term v0.0.0-20220526004731-065cf7ba2467 // indirect
	golang.org/x/tools v0.1.11 // indirect
)
